# BEGIN PLOT
LegendAlign=l
PlotSize=10,10
LegendXPos=0.00
LegendYPos=1.00
XLabel=$x_g$ 
YLabel=$Q$ [GeV]
ZLabel=$\text{d}^2N / \text{d}x_g \text{d}Q $ [pb/GeV]
LogX=1
# END PLOT

# BEGIN HISTO2D //home/apn/palma2/powheg/directphoton-NLO-pp-14000-focal/shower.yoda/ALICE_2022_FOCAL/comptonrecoilyield_mc->nloprompt-1_ph_pt_bins-20.000000-40.000000_j_pt_bins-20.000000-30.000000
Path=//home/apn/palma2/powheg/directphoton-NLO-pp-14000-focal/shower.yoda/ALICE_2022_FOCAL/comptonrecoilyield_mc->nloprompt-1_ph_pt_bins-20.000000-40.000000_j_pt_bins-20.000000-30.000000
ScaledBy=1.00017803168964068e-06
Title=shower
# xlow	 xhigh	 ylow	 yhigh	 val	 errminus	 errplus
1.000000e-06	3.981072e-06	1.000000e-06	3.000001e+00	0.000000e+00	0.000000e+00	0.000000e+00
1.000000e-06	3.981072e-06	3.000001e+00	6.000001e+00	0.000000e+00	0.000000e+00	0.000000e+00
1.000000e-06	3.981072e-06	6.000001e+00	9.000001e+00	0.000000e+00	0.000000e+00	0.000000e+00
1.000000e-06	3.981072e-06	9.000001e+00	1.200000e+01	0.000000e+00	0.000000e+00	0.000000e+00
1.000000e-06	3.981072e-06	1.200000e+01	1.500000e+01	0.000000e+00	0.000000e+00	0.000000e+00
1.000000e-06	3.981072e-06	1.500000e+01	1.800000e+01	0.000000e+00	0.000000e+00	0.000000e+00
1.000000e-06	3.981072e-06	1.800000e+01	2.100000e+01	0.000000e+00	0.000000e+00	0.000000e+00
1.000000e-06	3.981072e-06	2.100000e+01	2.400000e+01	0.000000e+00	0.000000e+00	0.000000e+00
1.000000e-06	3.981072e-06	2.400000e+01	2.700000e+01	0.000000e+00	0.000000e+00	0.000000e+00
1.000000e-06	3.981072e-06	2.700000e+01	3.000000e+01	0.000000e+00	0.000000e+00	0.000000e+00
3.981072e-06	1.584893e-05	1.000000e-06	3.000001e+00	0.000000e+00	0.000000e+00	0.000000e+00
3.981072e-06	1.584893e-05	3.000001e+00	6.000001e+00	0.000000e+00	0.000000e+00	0.000000e+00
3.981072e-06	1.584893e-05	6.000001e+00	9.000001e+00	0.000000e+00	0.000000e+00	0.000000e+00
3.981072e-06	1.584893e-05	9.000001e+00	1.200000e+01	0.000000e+00	0.000000e+00	0.000000e+00
3.981072e-06	1.584893e-05	1.200000e+01	1.500000e+01	0.000000e+00	0.000000e+00	0.000000e+00
3.981072e-06	1.584893e-05	1.500000e+01	1.800000e+01	0.000000e+00	0.000000e+00	0.000000e+00
3.981072e-06	1.584893e-05	1.800000e+01	2.100000e+01	0.000000e+00	0.000000e+00	0.000000e+00
3.981072e-06	1.584893e-05	2.100000e+01	2.400000e+01	0.000000e+00	0.000000e+00	0.000000e+00
3.981072e-06	1.584893e-05	2.400000e+01	2.700000e+01	0.000000e+00	0.000000e+00	0.000000e+00
3.981072e-06	1.584893e-05	2.700000e+01	3.000000e+01	0.000000e+00	0.000000e+00	0.000000e+00
1.584893e-05	6.309573e-05	1.000000e-06	3.000001e+00	7.327424e+05	7.327426e+05	7.327426e+05
1.584893e-05	6.309573e-05	3.000001e+00	6.000001e+00	2.322061e+06	2.322061e+06	2.322061e+06
1.584893e-05	6.309573e-05	6.000001e+00	9.000001e+00	5.828172e+06	5.828172e+06	5.828172e+06
1.584893e-05	6.309573e-05	9.000001e+00	1.200000e+01	0.000000e+00	0.000000e+00	0.000000e+00
1.584893e-05	6.309573e-05	1.200000e+01	1.500000e+01	0.000000e+00	0.000000e+00	0.000000e+00
1.584893e-05	6.309573e-05	1.500000e+01	1.800000e+01	2.267095e+05	2.267095e+05	2.267095e+05
1.584893e-05	6.309573e-05	1.800000e+01	2.100000e+01	0.000000e+00	0.000000e+00	0.000000e+00
1.584893e-05	6.309573e-05	2.100000e+01	2.400000e+01	2.382081e+04	2.382081e+04	2.382081e+04
1.584893e-05	6.309573e-05	2.400000e+01	2.700000e+01	0.000000e+00	0.000000e+00	0.000000e+00
1.584893e-05	6.309573e-05	2.700000e+01	3.000000e+01	0.000000e+00	0.000000e+00	0.000000e+00
6.309573e-05	2.511886e-04	1.000000e-06	3.000001e+00	3.861399e+05	3.861398e+05	3.861398e+05
6.309573e-05	2.511886e-04	3.000001e+00	6.000001e+00	9.158905e+04	9.158904e+04	9.158904e+04
6.309573e-05	2.511886e-04	6.000001e+00	9.000001e+00	9.959724e+04	9.959723e+04	9.959723e+04
6.309573e-05	2.511886e-04	9.000001e+00	1.200000e+01	1.626101e+04	1.626101e+04	1.626101e+04
6.309573e-05	2.511886e-04	1.200000e+01	1.500000e+01	1.761875e+05	1.761875e+05	1.761875e+05
6.309573e-05	2.511886e-04	1.500000e+01	1.800000e+01	3.624350e+03	3.624350e+03	3.624350e+03
6.309573e-05	2.511886e-04	1.800000e+01	2.100000e+01	2.521625e+04	2.521625e+04	2.521625e+04
6.309573e-05	2.511886e-04	2.100000e+01	2.400000e+01	1.578402e+04	1.578402e+04	1.578402e+04
6.309573e-05	2.511886e-04	2.400000e+01	2.700000e+01	8.668259e+04	8.668260e+04	8.668260e+04
6.309573e-05	2.511886e-04	2.700000e+01	3.000000e+01	5.074458e+05	5.074458e+05	5.074458e+05
2.511886e-04	1.000000e-03	1.000000e-06	3.000001e+00	0.000000e+00	0.000000e+00	0.000000e+00
2.511886e-04	1.000000e-03	3.000001e+00	6.000001e+00	0.000000e+00	0.000000e+00	0.000000e+00
2.511886e-04	1.000000e-03	6.000001e+00	9.000001e+00	0.000000e+00	0.000000e+00	0.000000e+00
2.511886e-04	1.000000e-03	9.000001e+00	1.200000e+01	0.000000e+00	0.000000e+00	0.000000e+00
2.511886e-04	1.000000e-03	1.200000e+01	1.500000e+01	0.000000e+00	0.000000e+00	0.000000e+00
2.511886e-04	1.000000e-03	1.500000e+01	1.800000e+01	2.123365e+03	2.123365e+03	2.123365e+03
2.511886e-04	1.000000e-03	1.800000e+01	2.100000e+01	0.000000e+00	0.000000e+00	0.000000e+00
2.511886e-04	1.000000e-03	2.100000e+01	2.400000e+01	7.825642e+01	7.825643e+01	7.825643e+01
2.511886e-04	1.000000e-03	2.400000e+01	2.700000e+01	0.000000e+00	0.000000e+00	0.000000e+00
2.511886e-04	1.000000e-03	2.700000e+01	3.000000e+01	0.000000e+00	0.000000e+00	0.000000e+00
1.000000e-03	3.981072e-03	1.000000e-06	3.000001e+00	0.000000e+00	0.000000e+00	0.000000e+00
1.000000e-03	3.981072e-03	3.000001e+00	6.000001e+00	2.227882e+05	2.227881e+05	2.227881e+05
1.000000e-03	3.981072e-03	6.000001e+00	9.000001e+00	0.000000e+00	0.000000e+00	0.000000e+00
1.000000e-03	3.981072e-03	9.000001e+00	1.200000e+01	0.000000e+00	0.000000e+00	0.000000e+00
1.000000e-03	3.981072e-03	1.200000e+01	1.500000e+01	0.000000e+00	0.000000e+00	0.000000e+00
1.000000e-03	3.981072e-03	1.500000e+01	1.800000e+01	0.000000e+00	0.000000e+00	0.000000e+00
1.000000e-03	3.981072e-03	1.800000e+01	2.100000e+01	3.172714e+02	3.172715e+02	3.172715e+02
1.000000e-03	3.981072e-03	2.100000e+01	2.400000e+01	1.101808e+03	1.101807e+03	1.101807e+03
1.000000e-03	3.981072e-03	2.400000e+01	2.700000e+01	8.793762e+00	8.793762e+00	8.793762e+00
1.000000e-03	3.981072e-03	2.700000e+01	3.000000e+01	0.000000e+00	0.000000e+00	0.000000e+00
3.981072e-03	1.584893e-02	1.000000e-06	3.000001e+00	0.000000e+00	0.000000e+00	0.000000e+00
3.981072e-03	1.584893e-02	3.000001e+00	6.000001e+00	0.000000e+00	0.000000e+00	0.000000e+00
3.981072e-03	1.584893e-02	6.000001e+00	9.000001e+00	0.000000e+00	0.000000e+00	0.000000e+00
3.981072e-03	1.584893e-02	9.000001e+00	1.200000e+01	0.000000e+00	0.000000e+00	0.000000e+00
3.981072e-03	1.584893e-02	1.200000e+01	1.500000e+01	0.000000e+00	0.000000e+00	0.000000e+00
3.981072e-03	1.584893e-02	1.500000e+01	1.800000e+01	0.000000e+00	0.000000e+00	0.000000e+00
3.981072e-03	1.584893e-02	1.800000e+01	2.100000e+01	0.000000e+00	0.000000e+00	0.000000e+00
3.981072e-03	1.584893e-02	2.100000e+01	2.400000e+01	7.233173e+01	7.233174e+01	7.233174e+01
3.981072e-03	1.584893e-02	2.400000e+01	2.700000e+01	9.508624e-01	9.508624e-01	9.508624e-01
3.981072e-03	1.584893e-02	2.700000e+01	3.000000e+01	1.005836e+01	1.005836e+01	1.005836e+01
1.584893e-02	6.309573e-02	1.000000e-06	3.000001e+00	0.000000e+00	0.000000e+00	0.000000e+00
1.584893e-02	6.309573e-02	3.000001e+00	6.000001e+00	0.000000e+00	0.000000e+00	0.000000e+00
1.584893e-02	6.309573e-02	6.000001e+00	9.000001e+00	0.000000e+00	0.000000e+00	0.000000e+00
1.584893e-02	6.309573e-02	9.000001e+00	1.200000e+01	0.000000e+00	0.000000e+00	0.000000e+00
1.584893e-02	6.309573e-02	1.200000e+01	1.500000e+01	0.000000e+00	0.000000e+00	0.000000e+00
1.584893e-02	6.309573e-02	1.500000e+01	1.800000e+01	0.000000e+00	0.000000e+00	0.000000e+00
1.584893e-02	6.309573e-02	1.800000e+01	2.100000e+01	0.000000e+00	0.000000e+00	0.000000e+00
1.584893e-02	6.309573e-02	2.100000e+01	2.400000e+01	0.000000e+00	0.000000e+00	0.000000e+00
1.584893e-02	6.309573e-02	2.400000e+01	2.700000e+01	0.000000e+00	0.000000e+00	0.000000e+00
1.584893e-02	6.309573e-02	2.700000e+01	3.000000e+01	0.000000e+00	0.000000e+00	0.000000e+00
6.309573e-02	2.511886e-01	1.000000e-06	3.000001e+00	0.000000e+00	0.000000e+00	0.000000e+00
6.309573e-02	2.511886e-01	3.000001e+00	6.000001e+00	2.083265e+01	2.083266e+01	2.083266e+01
6.309573e-02	2.511886e-01	6.000001e+00	9.000001e+00	1.508834e+01	1.508834e+01	1.508834e+01
6.309573e-02	2.511886e-01	9.000001e+00	1.200000e+01	0.000000e+00	0.000000e+00	0.000000e+00
6.309573e-02	2.511886e-01	1.200000e+01	1.500000e+01	0.000000e+00	0.000000e+00	0.000000e+00
6.309573e-02	2.511886e-01	1.500000e+01	1.800000e+01	0.000000e+00	0.000000e+00	0.000000e+00
6.309573e-02	2.511886e-01	1.800000e+01	2.100000e+01	0.000000e+00	0.000000e+00	0.000000e+00
6.309573e-02	2.511886e-01	2.100000e+01	2.400000e+01	0.000000e+00	0.000000e+00	0.000000e+00
6.309573e-02	2.511886e-01	2.400000e+01	2.700000e+01	0.000000e+00	0.000000e+00	0.000000e+00
6.309573e-02	2.511886e-01	2.700000e+01	3.000000e+01	0.000000e+00	0.000000e+00	0.000000e+00
2.511886e-01	1.000000e+00	1.000000e-06	3.000001e+00	0.000000e+00	0.000000e+00	0.000000e+00
2.511886e-01	1.000000e+00	3.000001e+00	6.000001e+00	2.932612e+01	2.932613e+01	2.932613e+01
2.511886e-01	1.000000e+00	6.000001e+00	9.000001e+00	9.590510e-02	9.590512e-02	9.590512e-02
2.511886e-01	1.000000e+00	9.000001e+00	1.200000e+01	1.633157e+00	1.633157e+00	1.633157e+00
2.511886e-01	1.000000e+00	1.200000e+01	1.500000e+01	0.000000e+00	0.000000e+00	0.000000e+00
2.511886e-01	1.000000e+00	1.500000e+01	1.800000e+01	0.000000e+00	0.000000e+00	0.000000e+00
2.511886e-01	1.000000e+00	1.800000e+01	2.100000e+01	0.000000e+00	0.000000e+00	0.000000e+00
2.511886e-01	1.000000e+00	2.100000e+01	2.400000e+01	0.000000e+00	0.000000e+00	0.000000e+00
2.511886e-01	1.000000e+00	2.400000e+01	2.700000e+01	0.000000e+00	0.000000e+00	0.000000e+00
2.511886e-01	1.000000e+00	2.700000e+01	3.000000e+01	0.000000e+00	0.000000e+00	0.000000e+00
# END HISTO2D

