# BEGIN PLOT
LegendAlign=l
PlotSize=10,10
LegendXPos=0.00
LegendYPos=1.00
XLabel=$\Delta\phi$
YLabel=$\Delta Rap$
ZLabel=$\text{d}^2\sigma / \text{d}\Delta Rap \text{d}\Delta\phi$ [pb]
# END PLOT

# BEGIN HISTO2D //home/apn/palma2/powheg/directphoton-NLO-pp-14000-focal/pwg-noshower.yoda/ALICE_2022_FOCAL/dphi_drap_plot_mc->nloprompt-1
Path=//home/apn/palma2/powheg/directphoton-NLO-pp-14000-focal/pwg-noshower.yoda/ALICE_2022_FOCAL/dphi_drap_plot_mc->nloprompt-1
ScaledBy=5.00047579527192023e-08
Title=pwg-noshower
# xlow	 xhigh	 ylow	 yhigh	 val	 errminus	 errplus
0.000000e+00	3.141593e-01	0.000000e+00	5.000000e-01	1.060204e+04	4.400101e+02	4.400101e+02
0.000000e+00	3.141593e-01	5.000000e-01	1.000000e+00	1.436974e+04	6.594867e+02	6.594867e+02
0.000000e+00	3.141593e-01	1.000000e+00	1.500000e+00	3.322493e+03	2.153234e+02	2.153234e+02
0.000000e+00	3.141593e-01	1.500000e+00	2.000000e+00	1.032397e+03	1.159150e+02	1.159150e+02
0.000000e+00	3.141593e-01	2.000000e+00	2.500000e+00	9.232183e+01	3.303399e+01	3.303399e+01
0.000000e+00	3.141593e-01	2.500000e+00	3.000000e+00	0.000000e+00	0.000000e+00	0.000000e+00
0.000000e+00	3.141593e-01	3.000000e+00	3.500000e+00	0.000000e+00	0.000000e+00	0.000000e+00
0.000000e+00	3.141593e-01	3.500000e+00	4.000000e+00	0.000000e+00	0.000000e+00	0.000000e+00
0.000000e+00	3.141593e-01	4.000000e+00	4.500000e+00	0.000000e+00	0.000000e+00	0.000000e+00
0.000000e+00	3.141593e-01	4.500000e+00	5.000000e+00	0.000000e+00	0.000000e+00	0.000000e+00
3.141593e-01	6.283185e-01	0.000000e+00	5.000000e-01	2.717129e+04	6.787548e+02	6.787548e+02
3.141593e-01	6.283185e-01	5.000000e-01	1.000000e+00	9.823230e+03	3.891755e+02	3.891755e+02
3.141593e-01	6.283185e-01	1.000000e+00	1.500000e+00	3.530457e+03	2.258490e+02	2.258490e+02
3.141593e-01	6.283185e-01	1.500000e+00	2.000000e+00	1.250073e+03	1.304919e+02	1.304919e+02
3.141593e-01	6.283185e-01	2.000000e+00	2.500000e+00	1.155512e+02	3.873584e+01	3.873584e+01
3.141593e-01	6.283185e-01	2.500000e+00	3.000000e+00	0.000000e+00	0.000000e+00	0.000000e+00
3.141593e-01	6.283185e-01	3.000000e+00	3.500000e+00	0.000000e+00	0.000000e+00	0.000000e+00
3.141593e-01	6.283185e-01	3.500000e+00	4.000000e+00	0.000000e+00	0.000000e+00	0.000000e+00
3.141593e-01	6.283185e-01	4.000000e+00	4.500000e+00	0.000000e+00	0.000000e+00	0.000000e+00
3.141593e-01	6.283185e-01	4.500000e+00	5.000000e+00	0.000000e+00	0.000000e+00	0.000000e+00
6.283185e-01	9.424778e-01	0.000000e+00	5.000000e-01	1.627845e+04	6.597389e+02	6.597389e+02
6.283185e-01	9.424778e-01	5.000000e-01	1.000000e+00	7.420159e+03	3.319010e+02	3.319010e+02
6.283185e-01	9.424778e-01	1.000000e+00	1.500000e+00	2.578347e+03	1.870575e+02	1.870575e+02
6.283185e-01	9.424778e-01	1.500000e+00	2.000000e+00	8.054914e+02	1.014889e+02	1.014889e+02
6.283185e-01	9.424778e-01	2.000000e+00	2.500000e+00	1.286814e+02	3.924531e+01	3.924531e+01
6.283185e-01	9.424778e-01	2.500000e+00	3.000000e+00	0.000000e+00	0.000000e+00	0.000000e+00
6.283185e-01	9.424778e-01	3.000000e+00	3.500000e+00	0.000000e+00	0.000000e+00	0.000000e+00
6.283185e-01	9.424778e-01	3.500000e+00	4.000000e+00	0.000000e+00	0.000000e+00	0.000000e+00
6.283185e-01	9.424778e-01	4.000000e+00	4.500000e+00	0.000000e+00	0.000000e+00	0.000000e+00
6.283185e-01	9.424778e-01	4.500000e+00	5.000000e+00	0.000000e+00	0.000000e+00	0.000000e+00
9.424778e-01	1.256637e+00	0.000000e+00	5.000000e-01	1.033729e+04	3.959576e+02	3.959576e+02
9.424778e-01	1.256637e+00	5.000000e-01	1.000000e+00	6.517549e+03	6.119275e+02	6.119275e+02
9.424778e-01	1.256637e+00	1.000000e+00	1.500000e+00	2.851651e+03	1.998321e+02	1.998321e+02
9.424778e-01	1.256637e+00	1.500000e+00	2.000000e+00	1.087803e+03	1.200272e+02	1.200272e+02
9.424778e-01	1.256637e+00	2.000000e+00	2.500000e+00	1.542307e+02	4.549181e+01	4.549181e+01
9.424778e-01	1.256637e+00	2.500000e+00	3.000000e+00	0.000000e+00	0.000000e+00	0.000000e+00
9.424778e-01	1.256637e+00	3.000000e+00	3.500000e+00	0.000000e+00	0.000000e+00	0.000000e+00
9.424778e-01	1.256637e+00	3.500000e+00	4.000000e+00	0.000000e+00	0.000000e+00	0.000000e+00
9.424778e-01	1.256637e+00	4.000000e+00	4.500000e+00	0.000000e+00	0.000000e+00	0.000000e+00
9.424778e-01	1.256637e+00	4.500000e+00	5.000000e+00	0.000000e+00	0.000000e+00	0.000000e+00
1.256637e+00	1.570796e+00	0.000000e+00	5.000000e-01	9.005064e+03	3.698715e+02	3.698715e+02
1.256637e+00	1.570796e+00	5.000000e-01	1.000000e+00	5.540522e+03	2.883557e+02	2.883557e+02
1.256637e+00	1.570796e+00	1.000000e+00	1.500000e+00	3.374325e+03	6.999828e+02	6.999828e+02
1.256637e+00	1.570796e+00	1.500000e+00	2.000000e+00	1.105124e+03	1.259233e+02	1.259233e+02
1.256637e+00	1.570796e+00	2.000000e+00	2.500000e+00	1.678814e+02	4.880110e+01	4.880110e+01
1.256637e+00	1.570796e+00	2.500000e+00	3.000000e+00	0.000000e+00	0.000000e+00	0.000000e+00
1.256637e+00	1.570796e+00	3.000000e+00	3.500000e+00	0.000000e+00	0.000000e+00	0.000000e+00
1.256637e+00	1.570796e+00	3.500000e+00	4.000000e+00	0.000000e+00	0.000000e+00	0.000000e+00
1.256637e+00	1.570796e+00	4.000000e+00	4.500000e+00	0.000000e+00	0.000000e+00	0.000000e+00
1.256637e+00	1.570796e+00	4.500000e+00	5.000000e+00	0.000000e+00	0.000000e+00	0.000000e+00
1.570796e+00	1.884956e+00	0.000000e+00	5.000000e-01	8.752757e+03	4.456733e+02	4.456733e+02
1.570796e+00	1.884956e+00	5.000000e-01	1.000000e+00	6.678890e+03	8.054145e+02	8.054145e+02
1.570796e+00	1.884956e+00	1.000000e+00	1.500000e+00	2.948201e+03	2.070720e+02	2.070720e+02
1.570796e+00	1.884956e+00	1.500000e+00	2.000000e+00	1.239705e+03	1.305968e+02	1.305968e+02
1.570796e+00	1.884956e+00	2.000000e+00	2.500000e+00	2.937296e+02	6.327181e+01	6.327181e+01
1.570796e+00	1.884956e+00	2.500000e+00	3.000000e+00	0.000000e+00	0.000000e+00	0.000000e+00
1.570796e+00	1.884956e+00	3.000000e+00	3.500000e+00	0.000000e+00	0.000000e+00	0.000000e+00
1.570796e+00	1.884956e+00	3.500000e+00	4.000000e+00	0.000000e+00	0.000000e+00	0.000000e+00
1.570796e+00	1.884956e+00	4.000000e+00	4.500000e+00	0.000000e+00	0.000000e+00	0.000000e+00
1.570796e+00	1.884956e+00	4.500000e+00	5.000000e+00	0.000000e+00	0.000000e+00	0.000000e+00
1.884956e+00	2.199115e+00	0.000000e+00	5.000000e-01	8.968312e+03	3.848488e+02	3.848488e+02
1.884956e+00	2.199115e+00	5.000000e-01	1.000000e+00	9.156956e+03	1.730626e+03	1.730626e+03
1.884956e+00	2.199115e+00	1.000000e+00	1.500000e+00	4.943329e+03	8.794197e+02	8.794197e+02
1.884956e+00	2.199115e+00	1.500000e+00	2.000000e+00	1.755380e+03	1.626149e+02	1.626149e+02
1.884956e+00	2.199115e+00	2.000000e+00	2.500000e+00	3.596381e+02	7.064753e+01	7.064753e+01
1.884956e+00	2.199115e+00	2.500000e+00	3.000000e+00	0.000000e+00	0.000000e+00	0.000000e+00
1.884956e+00	2.199115e+00	3.000000e+00	3.500000e+00	0.000000e+00	0.000000e+00	0.000000e+00
1.884956e+00	2.199115e+00	3.500000e+00	4.000000e+00	0.000000e+00	0.000000e+00	0.000000e+00
1.884956e+00	2.199115e+00	4.000000e+00	4.500000e+00	0.000000e+00	0.000000e+00	0.000000e+00
1.884956e+00	2.199115e+00	4.500000e+00	5.000000e+00	0.000000e+00	0.000000e+00	0.000000e+00
2.199115e+00	2.513274e+00	0.000000e+00	5.000000e-01	1.278221e+04	2.197136e+03	2.197136e+03
2.199115e+00	2.513274e+00	5.000000e-01	1.000000e+00	1.063936e+04	1.046457e+03	1.046457e+03
2.199115e+00	2.513274e+00	1.000000e+00	1.500000e+00	6.256523e+03	1.065742e+03	1.065742e+03
2.199115e+00	2.513274e+00	1.500000e+00	2.000000e+00	2.153452e+03	1.936689e+02	1.936689e+02
2.199115e+00	2.513274e+00	2.000000e+00	2.500000e+00	3.693747e+02	7.322194e+01	7.322194e+01
2.199115e+00	2.513274e+00	2.500000e+00	3.000000e+00	0.000000e+00	0.000000e+00	0.000000e+00
2.199115e+00	2.513274e+00	3.000000e+00	3.500000e+00	0.000000e+00	0.000000e+00	0.000000e+00
2.199115e+00	2.513274e+00	3.500000e+00	4.000000e+00	0.000000e+00	0.000000e+00	0.000000e+00
2.199115e+00	2.513274e+00	4.000000e+00	4.500000e+00	0.000000e+00	0.000000e+00	0.000000e+00
2.199115e+00	2.513274e+00	4.500000e+00	5.000000e+00	0.000000e+00	0.000000e+00	0.000000e+00
2.513274e+00	2.827433e+00	0.000000e+00	5.000000e-01	4.321040e+04	1.977090e+04	1.977090e+04
2.513274e+00	2.827433e+00	5.000000e-01	1.000000e+00	2.733401e+04	7.263729e+03	7.263729e+03
2.513274e+00	2.827433e+00	1.000000e+00	1.500000e+00	7.912656e+03	1.652069e+03	1.652069e+03
2.513274e+00	2.827433e+00	1.500000e+00	2.000000e+00	4.784587e+03	1.203306e+03	1.203306e+03
2.513274e+00	2.827433e+00	2.000000e+00	2.500000e+00	1.425721e+03	8.506472e+02	8.506472e+02
2.513274e+00	2.827433e+00	2.500000e+00	3.000000e+00	0.000000e+00	0.000000e+00	0.000000e+00
2.513274e+00	2.827433e+00	3.000000e+00	3.500000e+00	0.000000e+00	0.000000e+00	0.000000e+00
2.513274e+00	2.827433e+00	3.500000e+00	4.000000e+00	0.000000e+00	0.000000e+00	0.000000e+00
2.513274e+00	2.827433e+00	4.000000e+00	4.500000e+00	0.000000e+00	0.000000e+00	0.000000e+00
2.513274e+00	2.827433e+00	4.500000e+00	5.000000e+00	0.000000e+00	0.000000e+00	0.000000e+00
2.827433e+00	3.141593e+00	0.000000e+00	5.000000e-01	1.022731e+05	2.231081e+04	2.231081e+04
2.827433e+00	3.141593e+00	5.000000e-01	1.000000e+00	2.184620e+06	2.130267e+06	2.130267e+06
2.827433e+00	3.141593e+00	1.000000e+00	1.500000e+00	1.551169e+05	1.165347e+05	1.165347e+05
2.827433e+00	3.141593e+00	1.500000e+00	2.000000e+00	1.426669e+04	1.614962e+03	1.614962e+03
2.827433e+00	3.141593e+00	2.000000e+00	2.500000e+00	5.800094e+02	9.480832e+02	9.480832e+02
2.827433e+00	3.141593e+00	2.500000e+00	3.000000e+00	0.000000e+00	0.000000e+00	0.000000e+00
2.827433e+00	3.141593e+00	3.000000e+00	3.500000e+00	0.000000e+00	0.000000e+00	0.000000e+00
2.827433e+00	3.141593e+00	3.500000e+00	4.000000e+00	0.000000e+00	0.000000e+00	0.000000e+00
2.827433e+00	3.141593e+00	4.000000e+00	4.500000e+00	0.000000e+00	0.000000e+00	0.000000e+00
2.827433e+00	3.141593e+00	4.500000e+00	5.000000e+00	0.000000e+00	0.000000e+00	0.000000e+00
# END HISTO2D

