# BEGIN PLOT
LegendAlign=l
PlotSize=10,10
LegendXPos=0.00
LegendYPos=1.00
XLabel=$\Delta\phi$
YLabel=$\Delta Rap$
ZLabel=$\text{d}^2\sigma / \text{d}\Delta Rap \text{d}\Delta\phi$ [pb]
# END PLOT

# BEGIN HISTO2D //home/apn/palma2/powheg/directphoton-NLO-pp-14000-focal/pythia-lo.yoda/ALICE_2022_FOCAL:NOTPOWHEG=TRUE/dphi_drap_plot_ana->isolated-1_mc->nloprompt-0
Path=//home/apn/palma2/powheg/directphoton-NLO-pp-14000-focal/pythia-lo.yoda/ALICE_2022_FOCAL:NOTPOWHEG=TRUE/dphi_drap_plot_ana->isolated-1_mc->nloprompt-0
ScaledBy=8.90349596085808437e-01
Title=pythia-lo
# xlow	 xhigh	 ylow	 yhigh	 val	 errminus	 errplus
0.000000e+00	3.141593e-01	0.000000e+00	5.000000e-01	0.000000e+00	0.000000e+00	0.000000e+00
0.000000e+00	3.141593e-01	5.000000e-01	1.000000e+00	0.000000e+00	0.000000e+00	0.000000e+00
0.000000e+00	3.141593e-01	1.000000e+00	1.500000e+00	0.000000e+00	0.000000e+00	0.000000e+00
0.000000e+00	3.141593e-01	1.500000e+00	2.000000e+00	0.000000e+00	0.000000e+00	0.000000e+00
0.000000e+00	3.141593e-01	2.000000e+00	2.500000e+00	0.000000e+00	0.000000e+00	0.000000e+00
0.000000e+00	3.141593e-01	2.500000e+00	3.000000e+00	0.000000e+00	0.000000e+00	0.000000e+00
0.000000e+00	3.141593e-01	3.000000e+00	3.500000e+00	0.000000e+00	0.000000e+00	0.000000e+00
0.000000e+00	3.141593e-01	3.500000e+00	4.000000e+00	0.000000e+00	0.000000e+00	0.000000e+00
0.000000e+00	3.141593e-01	4.000000e+00	4.500000e+00	0.000000e+00	0.000000e+00	0.000000e+00
0.000000e+00	3.141593e-01	4.500000e+00	5.000000e+00	0.000000e+00	0.000000e+00	0.000000e+00
3.141593e-01	6.283185e-01	0.000000e+00	5.000000e-01	0.000000e+00	0.000000e+00	0.000000e+00
3.141593e-01	6.283185e-01	5.000000e-01	1.000000e+00	0.000000e+00	0.000000e+00	0.000000e+00
3.141593e-01	6.283185e-01	1.000000e+00	1.500000e+00	0.000000e+00	0.000000e+00	0.000000e+00
3.141593e-01	6.283185e-01	1.500000e+00	2.000000e+00	0.000000e+00	0.000000e+00	0.000000e+00
3.141593e-01	6.283185e-01	2.000000e+00	2.500000e+00	0.000000e+00	0.000000e+00	0.000000e+00
3.141593e-01	6.283185e-01	2.500000e+00	3.000000e+00	0.000000e+00	0.000000e+00	0.000000e+00
3.141593e-01	6.283185e-01	3.000000e+00	3.500000e+00	0.000000e+00	0.000000e+00	0.000000e+00
3.141593e-01	6.283185e-01	3.500000e+00	4.000000e+00	0.000000e+00	0.000000e+00	0.000000e+00
3.141593e-01	6.283185e-01	4.000000e+00	4.500000e+00	0.000000e+00	0.000000e+00	0.000000e+00
3.141593e-01	6.283185e-01	4.500000e+00	5.000000e+00	0.000000e+00	0.000000e+00	0.000000e+00
6.283185e-01	9.424778e-01	0.000000e+00	5.000000e-01	0.000000e+00	0.000000e+00	0.000000e+00
6.283185e-01	9.424778e-01	5.000000e-01	1.000000e+00	0.000000e+00	0.000000e+00	0.000000e+00
6.283185e-01	9.424778e-01	1.000000e+00	1.500000e+00	0.000000e+00	0.000000e+00	0.000000e+00
6.283185e-01	9.424778e-01	1.500000e+00	2.000000e+00	0.000000e+00	0.000000e+00	0.000000e+00
6.283185e-01	9.424778e-01	2.000000e+00	2.500000e+00	0.000000e+00	0.000000e+00	0.000000e+00
6.283185e-01	9.424778e-01	2.500000e+00	3.000000e+00	0.000000e+00	0.000000e+00	0.000000e+00
6.283185e-01	9.424778e-01	3.000000e+00	3.500000e+00	0.000000e+00	0.000000e+00	0.000000e+00
6.283185e-01	9.424778e-01	3.500000e+00	4.000000e+00	0.000000e+00	0.000000e+00	0.000000e+00
6.283185e-01	9.424778e-01	4.000000e+00	4.500000e+00	0.000000e+00	0.000000e+00	0.000000e+00
6.283185e-01	9.424778e-01	4.500000e+00	5.000000e+00	0.000000e+00	0.000000e+00	0.000000e+00
9.424778e-01	1.256637e+00	0.000000e+00	5.000000e-01	0.000000e+00	0.000000e+00	0.000000e+00
9.424778e-01	1.256637e+00	5.000000e-01	1.000000e+00	0.000000e+00	0.000000e+00	0.000000e+00
9.424778e-01	1.256637e+00	1.000000e+00	1.500000e+00	0.000000e+00	0.000000e+00	0.000000e+00
9.424778e-01	1.256637e+00	1.500000e+00	2.000000e+00	0.000000e+00	0.000000e+00	0.000000e+00
9.424778e-01	1.256637e+00	2.000000e+00	2.500000e+00	0.000000e+00	0.000000e+00	0.000000e+00
9.424778e-01	1.256637e+00	2.500000e+00	3.000000e+00	0.000000e+00	0.000000e+00	0.000000e+00
9.424778e-01	1.256637e+00	3.000000e+00	3.500000e+00	0.000000e+00	0.000000e+00	0.000000e+00
9.424778e-01	1.256637e+00	3.500000e+00	4.000000e+00	0.000000e+00	0.000000e+00	0.000000e+00
9.424778e-01	1.256637e+00	4.000000e+00	4.500000e+00	0.000000e+00	0.000000e+00	0.000000e+00
9.424778e-01	1.256637e+00	4.500000e+00	5.000000e+00	0.000000e+00	0.000000e+00	0.000000e+00
1.256637e+00	1.570796e+00	0.000000e+00	5.000000e-01	0.000000e+00	0.000000e+00	0.000000e+00
1.256637e+00	1.570796e+00	5.000000e-01	1.000000e+00	0.000000e+00	0.000000e+00	0.000000e+00
1.256637e+00	1.570796e+00	1.000000e+00	1.500000e+00	0.000000e+00	0.000000e+00	0.000000e+00
1.256637e+00	1.570796e+00	1.500000e+00	2.000000e+00	0.000000e+00	0.000000e+00	0.000000e+00
1.256637e+00	1.570796e+00	2.000000e+00	2.500000e+00	0.000000e+00	0.000000e+00	0.000000e+00
1.256637e+00	1.570796e+00	2.500000e+00	3.000000e+00	0.000000e+00	0.000000e+00	0.000000e+00
1.256637e+00	1.570796e+00	3.000000e+00	3.500000e+00	0.000000e+00	0.000000e+00	0.000000e+00
1.256637e+00	1.570796e+00	3.500000e+00	4.000000e+00	0.000000e+00	0.000000e+00	0.000000e+00
1.256637e+00	1.570796e+00	4.000000e+00	4.500000e+00	0.000000e+00	0.000000e+00	0.000000e+00
1.256637e+00	1.570796e+00	4.500000e+00	5.000000e+00	0.000000e+00	0.000000e+00	0.000000e+00
1.570796e+00	1.884956e+00	0.000000e+00	5.000000e-01	0.000000e+00	0.000000e+00	0.000000e+00
1.570796e+00	1.884956e+00	5.000000e-01	1.000000e+00	0.000000e+00	0.000000e+00	0.000000e+00
1.570796e+00	1.884956e+00	1.000000e+00	1.500000e+00	0.000000e+00	0.000000e+00	0.000000e+00
1.570796e+00	1.884956e+00	1.500000e+00	2.000000e+00	0.000000e+00	0.000000e+00	0.000000e+00
1.570796e+00	1.884956e+00	2.000000e+00	2.500000e+00	0.000000e+00	0.000000e+00	0.000000e+00
1.570796e+00	1.884956e+00	2.500000e+00	3.000000e+00	0.000000e+00	0.000000e+00	0.000000e+00
1.570796e+00	1.884956e+00	3.000000e+00	3.500000e+00	0.000000e+00	0.000000e+00	0.000000e+00
1.570796e+00	1.884956e+00	3.500000e+00	4.000000e+00	0.000000e+00	0.000000e+00	0.000000e+00
1.570796e+00	1.884956e+00	4.000000e+00	4.500000e+00	0.000000e+00	0.000000e+00	0.000000e+00
1.570796e+00	1.884956e+00	4.500000e+00	5.000000e+00	0.000000e+00	0.000000e+00	0.000000e+00
1.884956e+00	2.199115e+00	0.000000e+00	5.000000e-01	0.000000e+00	0.000000e+00	0.000000e+00
1.884956e+00	2.199115e+00	5.000000e-01	1.000000e+00	0.000000e+00	0.000000e+00	0.000000e+00
1.884956e+00	2.199115e+00	1.000000e+00	1.500000e+00	0.000000e+00	0.000000e+00	0.000000e+00
1.884956e+00	2.199115e+00	1.500000e+00	2.000000e+00	0.000000e+00	0.000000e+00	0.000000e+00
1.884956e+00	2.199115e+00	2.000000e+00	2.500000e+00	0.000000e+00	0.000000e+00	0.000000e+00
1.884956e+00	2.199115e+00	2.500000e+00	3.000000e+00	0.000000e+00	0.000000e+00	0.000000e+00
1.884956e+00	2.199115e+00	3.000000e+00	3.500000e+00	0.000000e+00	0.000000e+00	0.000000e+00
1.884956e+00	2.199115e+00	3.500000e+00	4.000000e+00	0.000000e+00	0.000000e+00	0.000000e+00
1.884956e+00	2.199115e+00	4.000000e+00	4.500000e+00	0.000000e+00	0.000000e+00	0.000000e+00
1.884956e+00	2.199115e+00	4.500000e+00	5.000000e+00	0.000000e+00	0.000000e+00	0.000000e+00
2.199115e+00	2.513274e+00	0.000000e+00	5.000000e-01	0.000000e+00	0.000000e+00	0.000000e+00
2.199115e+00	2.513274e+00	5.000000e-01	1.000000e+00	0.000000e+00	0.000000e+00	0.000000e+00
2.199115e+00	2.513274e+00	1.000000e+00	1.500000e+00	0.000000e+00	0.000000e+00	0.000000e+00
2.199115e+00	2.513274e+00	1.500000e+00	2.000000e+00	0.000000e+00	0.000000e+00	0.000000e+00
2.199115e+00	2.513274e+00	2.000000e+00	2.500000e+00	0.000000e+00	0.000000e+00	0.000000e+00
2.199115e+00	2.513274e+00	2.500000e+00	3.000000e+00	0.000000e+00	0.000000e+00	0.000000e+00
2.199115e+00	2.513274e+00	3.000000e+00	3.500000e+00	0.000000e+00	0.000000e+00	0.000000e+00
2.199115e+00	2.513274e+00	3.500000e+00	4.000000e+00	0.000000e+00	0.000000e+00	0.000000e+00
2.199115e+00	2.513274e+00	4.000000e+00	4.500000e+00	0.000000e+00	0.000000e+00	0.000000e+00
2.199115e+00	2.513274e+00	4.500000e+00	5.000000e+00	0.000000e+00	0.000000e+00	0.000000e+00
2.513274e+00	2.827433e+00	0.000000e+00	5.000000e-01	0.000000e+00	0.000000e+00	0.000000e+00
2.513274e+00	2.827433e+00	5.000000e-01	1.000000e+00	0.000000e+00	0.000000e+00	0.000000e+00
2.513274e+00	2.827433e+00	1.000000e+00	1.500000e+00	0.000000e+00	0.000000e+00	0.000000e+00
2.513274e+00	2.827433e+00	1.500000e+00	2.000000e+00	0.000000e+00	0.000000e+00	0.000000e+00
2.513274e+00	2.827433e+00	2.000000e+00	2.500000e+00	0.000000e+00	0.000000e+00	0.000000e+00
2.513274e+00	2.827433e+00	2.500000e+00	3.000000e+00	0.000000e+00	0.000000e+00	0.000000e+00
2.513274e+00	2.827433e+00	3.000000e+00	3.500000e+00	0.000000e+00	0.000000e+00	0.000000e+00
2.513274e+00	2.827433e+00	3.500000e+00	4.000000e+00	0.000000e+00	0.000000e+00	0.000000e+00
2.513274e+00	2.827433e+00	4.000000e+00	4.500000e+00	0.000000e+00	0.000000e+00	0.000000e+00
2.513274e+00	2.827433e+00	4.500000e+00	5.000000e+00	0.000000e+00	0.000000e+00	0.000000e+00
2.827433e+00	3.141593e+00	0.000000e+00	5.000000e-01	0.000000e+00	0.000000e+00	0.000000e+00
2.827433e+00	3.141593e+00	5.000000e-01	1.000000e+00	0.000000e+00	0.000000e+00	0.000000e+00
2.827433e+00	3.141593e+00	1.000000e+00	1.500000e+00	0.000000e+00	0.000000e+00	0.000000e+00
2.827433e+00	3.141593e+00	1.500000e+00	2.000000e+00	0.000000e+00	0.000000e+00	0.000000e+00
2.827433e+00	3.141593e+00	2.000000e+00	2.500000e+00	0.000000e+00	0.000000e+00	0.000000e+00
2.827433e+00	3.141593e+00	2.500000e+00	3.000000e+00	0.000000e+00	0.000000e+00	0.000000e+00
2.827433e+00	3.141593e+00	3.000000e+00	3.500000e+00	0.000000e+00	0.000000e+00	0.000000e+00
2.827433e+00	3.141593e+00	3.500000e+00	4.000000e+00	0.000000e+00	0.000000e+00	0.000000e+00
2.827433e+00	3.141593e+00	4.000000e+00	4.500000e+00	0.000000e+00	0.000000e+00	0.000000e+00
2.827433e+00	3.141593e+00	4.500000e+00	5.000000e+00	0.000000e+00	0.000000e+00	0.000000e+00
# END HISTO2D

